Info,Date modified,Key,EN,FR
,,administration,Administration,Administration
,,manager,Manager,Manager Général
,,marketing_director,Marketing Director,Directeur Marketing
,,media_director,Media Director,Directeur media
,,president,President,Président
,,secretariat,Secretary,Secrétaire
,,arena,Arena,Salle
,,capacity,Capacity,Capacité
,,phone,Phone,Téléphone
,,zipcode,Zip Code,Code Postal
,,contact,Contact,Contact
,,address1,Address,Adresse
,,address2,Address,Adresse
,,address3,Address,Adresse
,,city,City,Ville
,,email,Email,E-mail
,,fax,Fax,Fax
,,name,Name,Nom
,,web,Web,Site web
,,staff,Staff,Staff
,,coach,Coach,Entraineur
,,doctor,Doctor,Médecin
,,physiotherapist,Pychotherapist,kinésithérapeute
,,statistician,Statistitian,Statisticien
,,ticketing,Ticketing,Billetterie
,,pushAlerts,Push Alerts,Alertes PUSH
,,pushInfo,pushInfo,Abonnez-vous aux alertes fin de match pour recevoir les résulats de vos équipes favorites à la fin de chaque rencontre
,,News,News,Actus
,,Live,Live,Live
,,ProA,PRO A,PRO A
,,ProB,PRO B,PRO B
,,Videos,Videos,Vidéos
,,Past,Past,Terminés
,,NowPlaying,Now Playing,En cours
,,Coming,Coming,A venir
,,NoNowPlaying,No match is taking place at the moment,Aucun match en cours actuellement
,,CalendarResults,Calendar / Results,Calendrier / Résultats
,,Classification,Standings,Classement
,,Playoffs,Playoffs,Playoffs
,,Teams,Teams,Equipes
,,TopStats,Top Stats,Top Stats
,,Events,Events,Evénements
,,Close,Close,Fermer
,,Total,Total,Total
,,Standing,Standing,Classement
,,LoadMore,Load More,Suivant
2012.11.17,,PositionAbr,Pos,Pos
,,TeamAbr,Team,Equipe
,,PercentAbr,%,%
,,GamesPlayedAbr,GP,MJ
,,GoalAverageAbr,GA,GA
,,PlayerAbr,Player,Joueur
,,AssistsAbr,AS,Pd
,,EvaluationAbr,Ev,Ev
,,ReboundsAbr,REB,RT
,,PointsAbr,PTS,Pts
,,MinutesPlayedAbr,MIN,Mn
,,Referees,Referees,Arbitres
,,TeamInfo,Team Info,Fiche équipe
2012.11.22,,ContactAddress,Contact address,Address et contacts
"This is used when there are no matches to display, ex. Playoffs at the moment",,NoMatchesToDisplay,No matches to display,No matches to display